-------------------------------------------------------------------------------
Test set: MavenFramework.Jenkins01.login
-------------------------------------------------------------------------------
Tests run: 1, Failures: 0, Errors: 0, Skipped: 0, Time elapsed: 13.47 sec
